Boreal Caribou Survival, Recruitment and Population Growth • bboutools
…
The survival model, which includes a random effect of month, is fitted using bb_fit_survival(). To achieve convergence increase nthin.

set.seed(99)
surv_fit <- bb_fit_survival(surv_data, quiet = TRUE)
glance(surv_fit)
#> # A tibble: 1 × 8
#>       n     K nchains niters nthin   ess  rhat converged
#>   <int> <int>   <int>  <int> <dbl> <int> <dbl> <lgl>    
#> 1   363     6       3   1000    10   111  1.03 TRUE

Predictions can then be generated using bb_predict_survival().

surv_pred <- bb_predict_survival(surv_fit)
surv_pred
#> # A tibble: 32 × 6
#>    PopulationName CaribouYear Month estimate lower upper
#>    <fct>                <int> <int>    <dbl> <dbl> <dbl>
#>  1 A                     1985    NA    0.872 0.762 0.947
#>  2 A                     1986    NA    0.881 0.791 0.952
#>  3 A                     1987    NA    0.841 0.645 0.908
#>  4 A                     1988    NA    0.887 0.813 0.96 
#>  5 A                     1989    NA    0.874 0.785 0.943
#>  6 A                     1990    NA    0.872 0.785 0.936
#>  7 A                     1991    NA    0.877 0.801 0.936
#>  8 A                     1992    NA    0.889 0.822 0.956
#>  9 A                     1993    NA    0.87  0.793 0.927
#> 10 A                     1994    NA    0.849 0.756 0.909
#> # ℹ 22 more rows
…
