…
Predictions can then be generated using `bb_predict_survival()`.

``` r
surv_pred <- bb_predict_survival(surv_fit)
surv_pred
#> # A tibble: 32 × 6
#>    PopulationName CaribouYear Month estimate lower upper
#>    <chr>                <int> <int>    <dbl> <dbl> <dbl>
#>  1 A                     1985    NA    0.866 0.763 0.931
#>  2 A                     1986    NA    0.872 0.802 0.941
#>  3 A                     1987    NA    0.851 0.684 0.904
#>  4 A                     1988    NA    0.875 0.816 0.944
#>  5 A                     1989    NA    0.867 0.785 0.927
#>  6 A                     1990    NA    0.868 0.798 0.93 
#>  7 A                     1991    NA    0.87  0.816 0.93 
#>  8 A                     1992    NA    0.879 0.824 0.941
#>  9 A                     1993    NA    0.867 0.803 0.919
#> 10 A                     1994    NA    0.853 0.765 0.899
#> # ℹ 22 more rows
```
…
