…
## Providing Data

Once the `bboutools` package has been loaded, the next task is to
provide some data. An easy way to do this is to create a comma separated
file (`.csv`) with spreadsheet software. Recruitment and survival data
should be formatted as in the following anonymized datasets and can be
checked to confirm it is in the correct format by using the `bboudata`
functions:

``` r
# Recruitment data
bboudata::bbd_chk_data_recruitment(bboudata::bbourecruit_a)
bboudata::bbourecruit_a
#> # A tibble: 696 × 9
#>    PopulationName  Year Month   Day  Cows Bulls UnknownAdults Yearlings Calves
#>    <chr>          <int> <int> <int> <int> <int>         <int>     <int>  <int>
#>  1 A               1990     3     9     1     1             0         0      0
#>  2 A               1990     3     9     5     1             0         0      0
#>  3 A               1990     3     9     4     1             0         0      0
#>  4 A               1990     3     9     2     0             0         0      0
#>  5 A               1990     3     9     6     0             0         0      0
#>  6 A               1990     3     9     4     1             0         0      0
#>  7 A               1990     3     9     5     0             0         0      0
#>  8 A               1990     3     9     2     0             0         0      0
#>  9 A               1990     3     9     3     2             0         0      1
#> 10 A               1990     3     9     4     0             0         0      1
#> # ℹ 686 more rows
```

``` r
# Survival data
bboudata::bbd_chk_data_survival(bboudata::bbousurv_a)
bboudata::bbousurv_a
#> # A tibble: 364 × 6
#>    PopulationName  Year Month StartTotal MortalitiesCertain MortalitiesUncertain
#>    <chr>          <int> <int>      <int>              <int>                <int>
#>  1 A               1986     1          0                  0                    0
#>  2 A               1986     2          8                  0                    0
#>  3 A               1986     3          8                  0                    0
#>  4 A               1986     4          8                  0                    0
#>  5 A               1986     5          8                  0                    0
#>  6 A               1986     6          8                  0                    0
#>  7 A               1986     7          8                  0                    0
#>  8 A               1986     8          8                  0                    0
#>  9 A               1986     9          8                  0                    0
#> 10 A               1986    10          8                  0                    0
#> # ℹ 354 more rows
```
…
``` r
survival_ml <- bb_fit_survival_ml(bboudata::bbousurv_a, year_start = 4, quiet = TRUE)
```

The ML estimates are comparable to estimates derived from the equivalent
Bayesian models above. In general, ML models can be interpreted as
Bayesian models with uninformative (e.g., uniform) priors (McElreath
2016).

``` r
tidy(recruitment_ml, include_random_effects = FALSE)
#> # A tibble: 29 × 4
#>    term          estimate lower upper
#>    <chr>            <dbl> <dbl> <dbl>
#>  1 b0[1]            -1.43 -1.43 -1.43
#>  2 bAnnual[1, 1]     0     0     0   
#>  3 bAnnual[2, 1]     0     0     0   
#>  4 bAnnual[3, 1]     0     0     0   
#>  5 bAnnual[4, 1]     0     0     0   
#>  6 bAnnual[5, 1]     0     0     0   
#>  7 bAnnual[6, 1]     0     0     0   
#>  8 bAnnual[7, 1]     0     0     0   
#>  9 bAnnual[8, 1]     0     0     0   
#> 10 bAnnual[9, 1]     0     0     0   
#> # ℹ 19 more rows
```
…
There is functionality in `bboutools` to generate predictions (i.e.,
derived parameters) from ML models. However, there is no functionality
to get confidence intervals on predictions. This is a more
straightforward task with Bayesian models.

``` r
bb_predict_survival(survival_ml)
#> # A tibble: 32 × 6
#>    PopulationName CaribouYear Month estimate lower upper
#>    <fct>                <int> <int>    <dbl> <dbl> <dbl>
#>  1 A                     1985    NA    0.873    NA    NA
#>  2 A                     1986    NA    0.883    NA    NA
#>  3 A                     1987    NA    0.83     NA    NA
#>  4 A                     1988    NA    0.89     NA    NA
#>  5 A                     1989    NA    0.875    NA    NA
#>  6 A                     1990    NA    0.871    NA    NA
#>  7 A                     1991    NA    0.878    NA    NA
#>  8 A                     1992    NA    0.891    NA    NA
#>  9 A                     1993    NA    0.868    NA    NA
#> 10 A                     1994    NA    0.842    NA    NA
#> # ℹ 22 more rows
```
…
